{
  "formula" : {
    "a" : 5.0,
    "operator" : {
      "operator" : "+"
    },
    "b" : 5.0
  },
  "result" : 10.0
}


//Wersja 2


{
  "formula" : {
    "a" : 10.0,
    "operator" : {
      "operator" : "*"
    },
    "b" : 5.0
  },
  "result" : 50.0
}

//Wersja 3

