[ {
  "username" : "{Piotr}",
  "password" : "{Bujak}",
  "id" : "-115473212"
}, {
  "username" : "{username}",
  "password" : "{password}",
  "id" : "1951460428"
}, {
  "username" : "{user6lOlO}",
  "password" : "{password}",
  "id" : "-1228230905"
}, {
  "username" : "{use}",
  "password" : "{password}",
  "id" : "117192401"
}, {
  "username" : "{u}",
  "password" : "{password}",
  "id" : "121955"
}, {
  "username" : "{usernam}",
  "password" : "{password}",
  "id" : "755687017"
}, {
  "username" : "{usernameasd}",
  "password" : "{password}",
  "id" : "-720428516"
} ]7"
}, {
  "username" : "{usernameasd}",
  "password" : "{password}",
  "id" : "-720428516"
} ]17"
}, {
  "username" : "{usernameasd}",
  "password" : "{password}",
  "id" : "-720428516"
} ]